Message stats for scenario base_cq_buff_3
sim_time: 43200.1000
created: 1463
started: 37679
relayed: 19045
aborted: 18632
dropped: 19759
removed: 0
delivered: 204
delivery_prob: 0.1394
response_prob: 0.0000
overhead_ratio: 92.3578
latency_avg: 4379.1206
latency_med: 3136.9000
hopcount_avg: 3.9657
hopcount_med: 3
buffertime_avg: 1225.6780
buffertime_med: 693.1000
rtt_avg: NaN
rtt_med: NaN
