Message stats for scenario prophet_nodes_175
sim_time: 43200.1000
created: 1463
started: 95098
relayed: 47562
aborted: 47532
dropped: 47390
removed: 0
delivered: 357
delivery_prob: 0.2440
response_prob: 0.0000
overhead_ratio: 132.2269
latency_avg: 4509.6235
latency_med: 3325.5000
hopcount_avg: 3.8235
hopcount_med: 3
buffertime_avg: 1113.2454
buffertime_med: 617.2000
rtt_avg: NaN
rtt_med: NaN
