Message stats for scenario prophet_time_36000
sim_time: 36000.1000
created: 1218
started: 43949
relayed: 22719
aborted: 21228
dropped: 22632
removed: 0
delivered: 307
delivery_prob: 0.2521
response_prob: 0.0000
overhead_ratio: 73.0033
latency_avg: 4950.5371
latency_med: 4010.3000
hopcount_avg: 3.3713
hopcount_med: 3
buffertime_avg: 1416.3227
buffertime_med: 813.7000
rtt_avg: NaN
rtt_med: NaN
