[43200]
p0 1083.5040
p1 1016.7540
p2 1267.5940
p3 865.2140
p4 1015.2840
p5 999.3040
p6 1081.2140
p7 1094.4240
p8 1058.4240
p9 1098.8240
p10 1118.4040
p11 1150.7440
p12 1110.0140
p13 931.7540
p14 1322.1640
p15 1204.8340
p16 1057.7640
p17 1255.7640
p18 1090.0140
p19 1141.1740
p20 1114.1640
p21 1175.5540
p22 929.0940
p23 1015.1240
p24 1085.8840
p25 1132.5340
p26 910.0540
p27 921.3040
p28 1156.8840
p29 985.5240
p30 1044.9240
p31 857.1840
p32 1111.7540
p33 1117.9540
p34 1258.0340
p35 925.8040
p36 1098.9540
p37 1079.6440
p38 1074.1440
p39 1168.9740
p40 961.0240
p41 835.4740
p42 1126.4640
p43 904.5640
p44 951.5840
p45 876.1940
p46 1111.4840
p47 1204.4340
p48 1139.3640
p49 1162.9640
p50 1079.4440
p51 877.1540
p52 1318.0340
p53 994.8140
p54 980.1840
p55 952.0740
p56 1315.0640
p57 1213.2240
p58 1003.5340
p59 995.3340
p60 1000.7940
p61 783.8540
p62 968.6140
p63 884.9840
p64 972.1340
c65 524.5440
c66 691.3440
c67 786.7340
c68 840.2340
c69 744.4340
c70 766.7540
c71 794.1940
c72 826.3340
c73 698.5840
c74 846.0840
c75 704.5440
c76 807.2940
c77 631.5740
c78 751.0540
c79 819.4140
c80 715.3640
c81 652.7740
c82 857.8040
c83 615.4140
c84 774.6340
c85 691.2840
c86 606.0740
c87 872.3540
c88 740.7740
c89 620.5940
c90 953.9640
c91 855.8240
c92 777.4340
c93 889.5040
c94 761.5840
c95 846.5740
c96 762.8140
c97 803.1140
c98 798.8440
c99 738.2540
c100 708.3540
c101 837.3040
c102 771.6440
c103 746.9740
c104 679.1840
c105 857.7140
c106 660.7940
c107 822.3140
c108 797.2140
c109 691.1140
c110 682.5340
c111 762.7140
c112 717.4940
c113 799.3140
c114 834.5340
c115 837.8840
c116 771.4840
c117 697.2840
c118 747.9140
c119 852.9940
c120 869.0240
c121 826.4540
c122 770.9140
c123 791.4540
c124 878.8740
c125 792.2340
c126 835.3640
c127 747.6740
c128 864.9840
c129 781.7640
w130 1178.2340
w131 1299.0740
w132 976.8340
w133 1362.4840
w134 1283.6140
w135 1184.3540
w136 1049.0940
w137 911.8640
w138 979.8840
w139 840.4040
w140 1244.1340
w141 1190.1140
w142 1071.4340
w143 1136.4640
w144 1060.3940
w145 1151.4540
w146 1135.2240
w147 1079.2240
w148 1144.9240
w149 1092.2840
w150 1034.7640
w151 1040.2840
w152 894.8540
w153 1035.8640
w154 989.9740
w155 1027.8440
w156 956.6840
w157 1172.8240
w158 1064.4640
w159 1002.6040
w160 986.7840
w161 1158.6340
w162 1211.5540
w163 1199.9940
w164 1322.9240
w165 984.7040
w166 883.5940
w167 1141.5240
w168 929.6840
w169 1145.1340
w170 1017.5240
w171 943.4940
w172 1013.1440
w173 845.5240
w174 982.4640
w175 1146.1540
w176 1160.2140
w177 1095.4140
w178 1228.1640
w179 1118.9040
w180 965.8440
w181 1288.9440
w182 1101.1940
w183 1038.0440
w184 1048.0440
w185 1198.3740
w186 1115.0440
w187 1147.2240
w188 1036.3940
w189 1298.0040
w190 1017.0140
w191 909.8940
w192 1104.0540
w193 990.7840
t194 913.1040
t195 940.0940
t196 0.0000
t197 0.0000
t198 496.7640
t199 491.6740
