[43200]
p0 1620.7040
p1 1583.5540
p2 1728.6440
p3 1475.5640
p4 1559.7740
p5 1611.5040
p6 1682.8140
p7 1680.1140
p8 1630.0240
p9 1632.8240
p10 1674.8540
p11 1638.0940
p12 1695.7640
p13 1502.6040
p14 1838.5140
p15 1669.6840
p16 1619.0640
p17 1732.6640
p18 1613.5840
p19 1622.8740
p20 1591.2640
p21 1693.5540
p22 1565.4940
p23 1577.5240
p24 1700.5340
p25 1655.8040
p26 1489.4540
p27 1591.0640
p28 1662.6340
p29 1644.8840
p30 1668.8240
p31 1532.8340
p32 1688.6540
p33 1692.7040
p34 1729.4040
p35 1558.7040
p36 1633.4940
p37 1630.0940
p38 1550.0940
p39 1703.2740
p40 1575.0440
p41 1400.9240
p42 1669.5640
p43 1524.9140
p44 1548.1840
p45 1512.1540
p46 1614.3340
p47 1656.2340
p48 1725.6640
p49 1702.9640
p50 1563.4640
p51 1474.0240
p52 1724.1540
p53 1551.6140
p54 1593.1940
p55 1507.7740
p56 1753.0940
p57 1749.5240
p58 1563.7840
p59 1588.6340
p60 1632.6440
p61 1465.4540
p62 1608.9640
p63 1485.5040
p64 1551.4840
c65 962.0440
c66 1022.7640
c67 1179.9040
c68 1103.5340
c69 1089.4340
c70 1149.1040
c71 1179.2940
c72 1193.5840
c73 1073.7340
c74 1160.7040
c75 1085.9940
c76 1180.4340
c77 1063.6240
c78 1148.5940
c79 1219.8640
c80 1030.1040
c81 1019.9240
c82 1267.8040
c83 988.0640
c84 1155.1340
c85 1090.3340
c86 1052.1240
c87 1247.4540
c88 1099.1240
c89 1056.6940
c90 1299.4140
c91 1214.2240
c92 1127.8240
c93 1198.0240
c94 1118.9840
c95 1218.1940
c96 1177.3140
c97 1178.5840
c98 1190.1140
c99 1113.8040
c100 1165.7040
c101 1182.6040
c102 1106.4440
c103 1186.1240
c104 1033.2840
c105 1196.3340
c106 1118.5140
c107 1182.2140
c108 1133.6640
c109 1061.7340
c110 1087.9840
c111 1206.3640
c112 1094.8440
c113 1141.4140
c114 1233.3040
c115 1181.3540
c116 1140.7840
c117 1032.9840
c118 1172.9640
c119 1217.9440
c120 1197.7640
c121 1208.9040
c122 1142.5840
c123 1197.1740
c124 1308.9240
c125 1188.6840
c126 1237.7140
c127 1160.1440
c128 1188.4440
c129 1173.3040
w130 1693.7840
w131 1767.6740
w132 1551.8540
w133 1835.9340
w134 1749.0140
w135 1611.7540
w136 1615.7340
w137 1496.4140
w138 1531.2840
w139 1468.9640
w140 1769.8940
w141 1728.7140
w142 1652.7640
w143 1594.3540
w144 1590.9940
w145 1663.4040
w146 1749.6240
w147 1552.4740
w148 1714.6240
w149 1647.4340
w150 1605.2640
w151 1588.0540
w152 1569.3540
w153 1619.5140
w154 1588.2740
w155 1512.2940
w156 1606.7240
w157 1691.0740
w158 1584.2640
w159 1565.5540
w160 1649.4440
w161 1672.9740
w162 1748.9240
w163 1641.9940
w164 1782.2240
w165 1559.7540
w166 1614.4940
w167 1674.8240
w168 1532.9340
w169 1690.3340
w170 1636.7740
w171 1618.9940
w172 1644.3740
w173 1532.7240
w174 1580.3640
w175 1766.7040
w176 1700.2040
w177 1590.8640
w178 1773.0340
w179 1741.7440
w180 1549.4840
w181 1665.7440
w182 1617.4940
w183 1631.1940
w184 1628.2940
w185 1724.2440
w186 1628.8440
w187 1646.8240
w188 1569.0440
w189 1760.6040
w190 1538.7140
w191 1548.2940
w192 1627.2040
w193 1597.6840
t194 714.2840
t195 729.7540
t196 368.8140
t197 205.7640
t198 1024.9240
t199 954.1440
