[43200]
p0 1837.3140
p1 1770.9740
p2 1863.2240
p3 1766.6740
p4 1876.2040
p5 1756.1340
p6 1781.4040
p7 1869.0640
p8 1894.4740
p9 1790.4940
p10 1792.6040
p11 1760.7740
p12 1818.3940
p13 1765.3140
p14 1840.4340
p15 1871.8840
p16 1710.1740
p17 1897.2840
p18 1917.9040
p19 1817.3540
p20 1805.7340
p21 1880.6840
p22 1808.1340
p23 1751.3140
p24 1899.8740
p25 1799.5740
p26 1722.8440
p27 1822.2940
p28 1822.5340
p29 1770.1040
p30 1763.0140
p31 1853.8540
p32 1806.8740
p33 1813.7740
p34 1778.0540
p35 1889.3040
p36 1932.1740
p37 1758.7740
p38 1761.0140
p39 1799.2340
c40 1512.2840
c41 1533.8740
c42 1543.0140
c43 1554.4340
c44 1457.4040
c45 1518.7540
c46 1496.7140
c47 1555.6840
c48 1511.5240
c49 1553.8640
c50 1605.0740
c51 1552.9840
c52 1557.2940
c53 1457.2940
c54 1552.7240
c55 1474.1640
c56 1614.4840
c57 1512.5040
c58 1541.8640
c59 1551.9540
c60 1460.1240
c61 1551.9740
c62 1536.0240
c63 1628.5640
c64 1589.0940
c65 1454.6840
c66 1436.3140
c67 1453.7640
c68 1492.6340
c69 1581.1640
c70 1514.3640
c71 1494.3040
c72 1462.6240
c73 1615.9640
c74 1493.2540
c75 1435.3940
c76 1521.1840
c77 1537.4440
c78 1547.2140
c79 1564.4440
w80 1768.9540
w81 1750.7940
w82 1870.7340
w83 1816.9040
w84 1785.9840
w85 1773.0540
w86 1813.8940
w87 1807.3340
w88 1844.8640
w89 1863.4540
w90 1779.8840
w91 1906.1540
w92 1839.9140
w93 1826.8740
w94 1801.7840
w95 1795.0240
w96 1822.7940
w97 1813.7240
w98 1809.8940
w99 1781.9040
w100 1807.0040
w101 1902.0640
w102 1774.9940
w103 1767.4940
w104 1859.4840
w105 1830.6140
w106 1853.4740
w107 1778.5740
w108 1766.1240
w109 1796.3140
w110 1885.8040
w111 1770.5840
w112 1735.1240
w113 1863.0740
w114 1894.1340
w115 1728.6640
w116 1802.4240
w117 1825.3140
w118 1816.3340
w119 1855.3340
t120 1286.3640
t121 1195.4040
t122 875.7440
t123 818.3240
t124 1033.1440
t125 1018.5540
