Message stats for scenario dq_ttl_100
sim_time: 43200.1000
created: 1463
started: 23498
relayed: 9157
aborted: 14339
dropped: 9494
removed: 0
delivered: 468
delivery_prob: 0.3199
response_prob: 0.0000
overhead_ratio: 18.5662
latency_avg: 3192.8314
latency_med: 3168.4000
hopcount_avg: 2.1923
hopcount_med: 2
buffertime_avg: 2270.7126
buffertime_med: 1893.0000
rtt_avg: NaN
rtt_med: NaN
