[43200]
p0 1898.1140
p1 1914.2740
p2 1980.5240
p3 1892.5740
p4 1986.6040
p5 1889.6340
p6 1899.1040
p7 1976.6140
p8 1997.7240
p9 1890.6940
p10 1997.6040
p11 1873.8740
p12 1938.6440
p13 1852.0640
p14 1965.1340
p15 1941.8340
p16 1827.3740
p17 2001.6340
p18 1990.0540
p19 1959.5540
p20 1903.4340
p21 2027.5340
p22 1928.5340
p23 1849.2640
p24 2025.8740
p25 1908.8240
p26 1836.7940
p27 2007.7440
p28 1928.8840
p29 1865.9540
p30 1919.7640
p31 1943.9540
p32 1944.5240
p33 1905.3740
p34 1913.5540
p35 1923.1540
p36 2014.7240
p37 1856.7740
p38 1873.2140
p39 1980.4340
c40 1615.2840
c41 1634.7240
c42 1601.7140
c43 1659.1340
c44 1571.0540
c45 1629.6040
c46 1610.9140
c47 1667.8840
c48 1633.5240
c49 1655.0640
c50 1693.7740
c51 1640.2840
c52 1635.1440
c53 1560.0940
c54 1655.8740
c55 1577.7140
c56 1722.7340
c57 1607.5540
c58 1639.7640
c59 1685.7540
c60 1591.9240
c61 1675.6740
c62 1659.5740
c63 1709.9640
c64 1652.4440
c65 1554.7340
c66 1551.7640
c67 1567.1640
c68 1601.8340
c69 1665.1640
c70 1655.0140
c71 1566.9040
c72 1561.1740
c73 1729.7640
c74 1598.3040
c75 1572.1440
c76 1582.0340
c77 1627.7940
c78 1664.2640
c79 1711.4440
w80 1902.6540
w81 1858.0940
w82 2006.8340
w83 1937.6040
w84 1937.4840
w85 1908.9540
w86 1925.8440
w87 1866.6840
w88 1920.9640
w89 1927.5040
w90 1908.8340
w91 1988.4540
w92 1938.3640
w93 1896.0240
w94 1923.2840
w95 1932.4240
w96 1930.8440
w97 1915.2740
w98 1943.7940
w99 1912.4540
w100 1886.5540
w101 2035.7140
w102 1901.9940
w103 1864.9440
w104 1940.8840
w105 1939.6640
w106 1941.8740
w107 1922.6240
w108 1910.4740
w109 1908.3140
w110 1959.0040
w111 1895.8840
w112 1868.5240
w113 1956.7740
w114 1955.8340
w115 1851.3640
w116 1920.9740
w117 1956.8140
w118 1931.2840
w119 1958.9340
t120 1473.4640
t121 1460.7040
t122 1335.3940
t123 1278.1240
t124 1515.9440
t125 1538.1540
