Message stats for scenario q_buff_15
sim_time: 43200.1000
created: 1463
started: 46785
relayed: 22518
aborted: 24265
dropped: 20575
removed: 0
delivered: 750
delivery_prob: 0.5126
response_prob: 0.0000
overhead_ratio: 29.0240
latency_avg: 5672.0036
latency_med: 5080.0000
hopcount_avg: 2.5347
hopcount_med: 2
buffertime_avg: 4266.3344
buffertime_med: 3857.1000
rtt_avg: NaN
rtt_med: NaN
