Message stats for scenario q_buff_7
sim_time: 43200.1000
created: 1463
started: 40602
relayed: 18466
aborted: 22134
dropped: 17918
removed: 0
delivered: 543
delivery_prob: 0.3712
response_prob: 0.0000
overhead_ratio: 33.0074
latency_avg: 4480.1215
latency_med: 3548.5000
hopcount_avg: 2.8324
hopcount_med: 3
buffertime_avg: 2683.8508
buffertime_med: 2090.4000
rtt_avg: NaN
rtt_med: NaN
