Message stats for scenario q_nodes_126
sim_time: 43200.1000
created: 1463
started: 36289
relayed: 16141
aborted: 20146
dropped: 15975
removed: 0
delivered: 442
delivery_prob: 0.3021
response_prob: 0.0000
overhead_ratio: 35.5181
latency_avg: 4195.7247
latency_med: 3056.1000
hopcount_avg: 2.8258
hopcount_med: 3
buffertime_avg: 2266.9673
buffertime_med: 1593.5000
rtt_avg: NaN
rtt_med: NaN
