[43200]
p0 1478.2640
p1 1486.9240
p2 1558.3240
p3 1462.7240
p4 1603.6540
p5 1475.0840
p6 1505.3040
p7 1586.3640
p8 1547.4240
p9 1466.6940
p10 1446.1540
p11 1488.0240
p12 1509.9440
p13 1436.2640
p14 1446.2840
p15 1595.4840
p16 1351.3240
p17 1622.7340
p18 1539.2540
p19 1519.3540
p20 1479.1840
p21 1540.0340
p22 1479.2340
p23 1433.8140
p24 1585.9240
p25 1443.4240
p26 1427.5940
p27 1611.4440
p28 1549.9340
p29 1434.2540
p30 1510.0140
p31 1546.0540
p32 1518.0740
p33 1470.9740
p34 1528.0540
p35 1551.3040
p36 1579.8740
p37 1404.6740
p38 1368.1640
p39 1462.3340
c40 1413.0340
c41 1489.4740
c42 1382.2640
c43 1417.0340
c44 1337.3540
c45 1426.2040
c46 1404.0640
c47 1482.7840
c48 1451.4740
c49 1455.7640
c50 1458.2240
c51 1431.8340
c52 1424.8440
c53 1369.8440
c54 1443.1240
c55 1437.2640
c56 1560.4840
c57 1419.1540
c58 1447.4640
c59 1481.1540
c60 1329.3240
c61 1470.3240
c62 1461.1240
c63 1472.7140
c64 1399.5940
c65 1351.6840
c66 1426.6140
c67 1427.8640
c68 1409.7840
c69 1401.7140
c70 1505.1140
c71 1414.6040
c72 1411.5740
c73 1470.3140
c74 1422.5540
c75 1397.4940
c76 1439.5340
c77 1441.0440
c78 1442.8640
c79 1477.4940
w80 1475.0040
w81 1443.5940
w82 1577.1840
w83 1493.2040
w84 1537.6340
w85 1420.8040
w86 1414.5440
w87 1455.2840
w88 1548.8140
w89 1518.2040
w90 1525.4840
w91 1589.5540
w92 1586.7140
w93 1511.7240
w94 1492.3840
w95 1489.8240
w96 1440.4940
w97 1526.5740
w98 1482.8440
w99 1488.2040
w100 1420.0540
w101 1638.9140
w102 1431.6940
w103 1458.0940
w104 1488.9340
w105 1564.6140
w106 1551.0740
w107 1486.5240
w108 1458.3240
w109 1480.7640
w110 1589.9540
w111 1441.3340
w112 1410.7240
w113 1566.0240
w114 1464.2840
w115 1409.5640
w116 1505.0740
w117 1513.9640
w118 1490.5340
w119 1502.2340
t120 1569.4140
t121 1455.9540
t122 1072.9440
t123 1052.7240
t124 1063.4940
t125 1018.7540
