Message stats for scenario base_dq_nodes_175
sim_time: 43200.1000
created: 1463
started: 84747
relayed: 44194
aborted: 40551
dropped: 44303
removed: 0
delivered: 231
delivery_prob: 0.1579
response_prob: 0.0000
overhead_ratio: 190.3160
latency_avg: 3461.9078
latency_med: 2303.1000
hopcount_avg: 4.1818
hopcount_med: 3
buffertime_avg: 1215.0140
buffertime_med: 849.2000
rtt_avg: NaN
rtt_med: NaN
