Message stats for scenario base_q_ttl_400
sim_time: 43200.1000
created: 1463
started: 47093
relayed: 24432
aborted: 22659
dropped: 24650
removed: 0
delivered: 288
delivery_prob: 0.1969
response_prob: 0.0000
overhead_ratio: 83.8333
latency_avg: 4224.7576
latency_med: 2916.9000
hopcount_avg: 3.4583
hopcount_med: 3
buffertime_avg: 1691.1734
buffertime_med: 1112.9000
rtt_avg: NaN
rtt_med: NaN
