[43200]
p0 1082.5840
p1 1206.9540
p2 1213.2540
p3 1141.1340
p4 1254.5640
p5 1184.9540
p6 1413.4540
p7 1350.9340
p8 1138.2740
p9 1365.9740
p10 1403.9740
p11 1207.4940
p12 1187.9740
p13 1233.2340
p14 1292.9840
p15 1264.9640
p16 1215.1040
p17 1408.6540
p18 1404.0140
p19 1196.4640
p20 1209.0040
p21 1164.4640
p22 1187.5740
p23 1267.4940
p24 1250.5540
p25 1288.9140
p26 1280.7740
p27 1332.6340
p28 1309.4440
p29 1231.5440
p30 1124.8040
p31 1143.8440
p32 1259.8140
p33 1264.7340
p34 1091.0740
p35 1129.6640
p36 1172.0840
p37 1314.8740
p38 1182.4040
p39 1292.6940
p40 1191.0640
p41 1313.5840
p42 1469.0140
p43 1334.9940
p44 1295.6640
p45 1244.3340
p46 1392.7540
p47 1142.7240
p48 1232.9740
p49 1224.9240
p50 1098.2240
p51 1091.2440
p52 1210.1740
p53 1353.3140
p54 1153.9440
p55 1056.4740
c56 1103.5940
c57 1279.3140
c58 1220.7140
c59 1143.1840
c60 1118.6140
c61 1311.7140
c62 1210.7340
c63 1095.6240
c64 1149.2340
c65 1188.4740
c66 1171.2940
c67 1218.7840
c68 1178.0740
c69 1187.9740
c70 1168.4840
c71 1263.3640
c72 1117.7540
c73 1192.9640
c74 1098.6840
c75 1227.1540
c76 1233.3140
c77 1243.5140
c78 1049.5940
c79 1160.1640
c80 1131.0640
c81 1188.8040
c82 1161.5340
c83 1179.3840
c84 1232.3740
c85 1207.8740
c86 1102.6240
c87 1154.8140
c88 1071.0540
c89 1177.2940
c90 1133.0040
c91 1097.1440
c92 1176.2140
c93 1140.0940
c94 1142.7240
c95 1168.9040
c96 1252.5340
c97 1192.4540
c98 1090.7540
c99 1139.7040
c100 1254.0040
c101 1215.9040
c102 1173.4040
c103 1216.0240
c104 1064.5440
c105 1187.6940
c106 1117.7440
c107 1102.5540
c108 1098.7640
c109 1322.5140
c110 1057.7640
c111 1306.7440
w112 1232.2440
w113 1359.8840
w114 1246.2940
w115 1305.4040
w116 1240.1340
w117 1261.9040
w118 1229.7840
w119 1253.9640
w120 1195.6940
w121 1294.9640
w122 1288.3340
w123 1146.8140
w124 1314.8040
w125 1133.6740
w126 1408.8240
w127 1208.0840
w128 1283.3440
w129 1229.7440
w130 1295.7340
w131 1091.0840
w132 1209.7240
w133 1241.5740
w134 1129.3440
w135 1170.3640
w136 1320.2540
w137 987.0140
w138 1197.4040
w139 1291.1440
w140 1211.6340
w141 1173.4140
w142 1370.7840
w143 1165.1940
w144 1192.3340
w145 1268.1140
w146 1417.9140
w147 1245.6140
w148 1421.9340
w149 1204.1640
w150 1321.2040
w151 1279.5140
w152 1348.0240
w153 1247.7940
w154 1193.3740
w155 1416.3140
w156 1316.5140
w157 1167.2440
w158 1147.5140
w159 1207.8740
w160 1226.0340
w161 1267.7340
w162 1125.5640
w163 1329.7040
w164 1317.0140
w165 1234.1640
w166 1387.5440
w167 1244.8240
w168 1257.0640
t169 1751.8840
t170 1793.6840
t171 823.5540
t172 942.2540
t173 864.9440
t174 947.4940
