[43200]
p0 1482.0640
p1 1441.6240
p2 1501.0740
p3 1466.4240
p4 1651.2040
p5 1432.7840
p6 1508.2040
p7 1551.8640
p8 1550.4740
p9 1474.1440
p10 1448.0540
p11 1463.6740
p12 1452.7440
p13 1357.0140
p14 1414.5340
p15 1556.9340
p16 1348.4740
p17 1621.1840
p18 1529.1040
p19 1489.9040
p20 1401.5340
p21 1536.3340
p22 1435.7840
p23 1328.5140
p24 1581.9240
p25 1393.6240
p26 1466.8440
p27 1519.4440
p28 1498.1340
p29 1424.3540
p30 1505.6140
p31 1496.1540
p32 1473.1240
p33 1470.3240
p34 1560.8040
p35 1539.2040
p36 1568.0740
p37 1375.7740
p38 1353.1140
p39 1472.1840
c40 1382.8340
c41 1498.2740
c42 1382.5140
c43 1378.3840
c44 1318.6040
c45 1403.8040
c46 1339.2640
c47 1463.3340
c48 1410.1240
c49 1453.6640
c50 1429.7740
c51 1410.8840
c52 1417.1440
c53 1318.0940
c54 1440.7740
c55 1430.4640
c56 1529.1340
c57 1399.1540
c58 1450.6640
c59 1474.0540
c60 1312.5240
c61 1413.1740
c62 1418.9240
c63 1473.6640
c64 1422.5940
c65 1336.5840
c66 1392.5640
c67 1386.5640
c68 1405.7340
c69 1395.6640
c70 1464.2140
c71 1382.7540
c72 1335.9240
c73 1486.3640
c74 1368.9540
c75 1360.1440
c76 1428.5340
c77 1386.5440
c78 1433.3140
c79 1444.8940
w80 1458.4040
w81 1367.5940
w82 1536.9840
w83 1483.9040
w84 1481.2340
w85 1373.4040
w86 1375.7440
w87 1458.2340
w88 1510.8140
w89 1486.6040
w90 1451.9340
w91 1543.9040
w92 1587.3140
w93 1444.4240
w94 1433.4840
w95 1474.0240
w96 1410.7440
w97 1457.2240
w98 1433.7940
w99 1464.2540
w100 1369.2540
w101 1576.0140
w102 1372.1940
w103 1427.6440
w104 1466.3340
w105 1503.7640
w106 1527.7240
w107 1467.1240
w108 1396.4240
w109 1462.3640
w110 1549.4040
w111 1400.6840
w112 1368.4740
w113 1559.8240
w114 1447.9340
w115 1367.9640
w116 1475.3240
w117 1524.6640
w118 1426.8840
w119 1495.2840
t120 1589.3140
t121 1436.1040
t122 1041.2940
t123 988.1740
t124 1042.1440
t125 968.6040
