Message stats for scenario base_dual_q_buff_15
sim_time: 43200.1000
created: 1463
started: 52282
relayed: 26560
aborted: 25720
dropped: 25331
removed: 0
delivered: 502
delivery_prob: 0.3431
response_prob: 0.0000
overhead_ratio: 51.9084
latency_avg: 4677.6428
latency_med: 4065.2000
hopcount_avg: 2.5239
hopcount_med: 2
buffertime_avg: 3747.2551
buffertime_med: 3301.6000
rtt_avg: NaN
rtt_med: NaN
