Message stats for scenario base_q_130_nodes
sim_time: 43200.1000
created: 1463
started: 45909
relayed: 22884
aborted: 23023
dropped: 23216
removed: 0
delivered: 269
delivery_prob: 0.1839
response_prob: 0.0000
overhead_ratio: 84.0706
latency_avg: 4097.6814
latency_med: 2982.6000
hopcount_avg: 3.4498
hopcount_med: 3
buffertime_avg: 1679.2881
buffertime_med: 1171.3000
rtt_avg: NaN
rtt_med: NaN
