Message stats for scenario pq_buff_10
sim_time: 43200.1000
created: 1463
started: 36510
relayed: 15949
aborted: 20558
dropped: 14936
removed: 0
delivered: 657
delivery_prob: 0.4491
response_prob: 0.0000
overhead_ratio: 23.2755
latency_avg: 5548.5610
latency_med: 4788.1000
hopcount_avg: 2.4581
hopcount_med: 2
buffertime_avg: 3961.7670
buffertime_med: 3402.7000
rtt_avg: NaN
rtt_med: NaN
