Message stats for scenario pq_nodes_175
sim_time: 43200.1000
created: 1463
started: 50554
relayed: 21418
aborted: 29132
dropped: 21130
removed: 0
delivered: 414
delivery_prob: 0.2830
response_prob: 0.0000
overhead_ratio: 50.7343
latency_avg: 4212.2749
latency_med: 3538.9000
hopcount_avg: 2.9783
hopcount_med: 3
buffertime_avg: 2095.3534
buffertime_med: 1603.9000
rtt_avg: NaN
rtt_med: NaN
