Message stats for scenario pq_time_39600
sim_time: 39600.1000
created: 1341
started: 24951
relayed: 10640
aborted: 14310
dropped: 10611
removed: 0
delivered: 421
delivery_prob: 0.3139
response_prob: 0.0000
overhead_ratio: 24.2732
latency_avg: 5018.3857
latency_med: 4067.3000
hopcount_avg: 2.5962
hopcount_med: 2
buffertime_avg: 2773.7839
buffertime_med: 2087.9000
rtt_avg: NaN
rtt_med: NaN
