Message stats for scenario pq_time_14400
sim_time: 14000.0000
created: 472
started: 6608
relayed: 2770
aborted: 3834
dropped: 2142
removed: 0
delivered: 141
delivery_prob: 0.2987
response_prob: 0.0000
overhead_ratio: 18.6454
latency_avg: 3819.2454
latency_med: 3166.1000
hopcount_avg: 2.3759
hopcount_med: 2
buffertime_avg: 2504.5493
buffertime_med: 2057.8000
rtt_avg: NaN
rtt_med: NaN
