Message stats for scenario pq_time_18000
sim_time: 18000.0000
created: 609
started: 9577
relayed: 4063
aborted: 5513
dropped: 3426
removed: 0
delivered: 183
delivery_prob: 0.3005
response_prob: 0.0000
overhead_ratio: 21.2022
latency_avg: 4325.7634
latency_med: 3720.1000
hopcount_avg: 2.5301
hopcount_med: 2
buffertime_avg: 2444.4576
buffertime_med: 2060.2000
rtt_avg: NaN
rtt_med: NaN
