Message stats for scenario hbpr_time_28800
sim_time: 28800.1000
created: 974
started: 26847
relayed: 11365
aborted: 15479
dropped: 11166
removed: 0
delivered: 211
delivery_prob: 0.2166
response_prob: 0.0000
overhead_ratio: 52.8626
latency_avg: 4490.1000
latency_med: 3692.6000
hopcount_avg: 3.1327
hopcount_med: 3
buffertime_avg: 2142.1735
buffertime_med: 1514.6000
rtt_avg: NaN
rtt_med: NaN
