Message stats for scenario hbpr_nodes_175
sim_time: 43200.1000
created: 1463
started: 70444
relayed: 27472
aborted: 42969
dropped: 27264
removed: 0
delivered: 316
delivery_prob: 0.2160
response_prob: 0.0000
overhead_ratio: 85.9367
latency_avg: 4221.9975
latency_med: 3007.3000
hopcount_avg: 3.4304
hopcount_med: 3
buffertime_avg: 1821.9284
buffertime_med: 1308.4000
rtt_avg: NaN
rtt_med: NaN
