Message stats for scenario hbpr_time_32400
sim_time: 32400.1000
created: 1095
started: 29813
relayed: 12205
aborted: 17607
dropped: 12076
removed: 0
delivered: 247
delivery_prob: 0.2256
response_prob: 0.0000
overhead_ratio: 48.4130
latency_avg: 4641.7749
latency_med: 3628.4000
hopcount_avg: 2.9595
hopcount_med: 3
buffertime_avg: 2207.5340
buffertime_med: 1552.9000
rtt_avg: NaN
rtt_med: NaN
