Message stats for scenario hbpr_time_25200
sim_time: 25200.1000
created: 853
started: 23300
relayed: 9823
aborted: 13476
dropped: 9534
removed: 0
delivered: 178
delivery_prob: 0.2087
response_prob: 0.0000
overhead_ratio: 54.1854
latency_avg: 4365.3506
latency_med: 3288.5000
hopcount_avg: 3.1854
hopcount_med: 3
buffertime_avg: 2164.2787
buffertime_med: 1609.2000
rtt_avg: NaN
rtt_med: NaN
