[43200]
p0 1856.4640
p1 1841.5740
p2 1857.0740
p3 1799.8740
p4 1905.1040
p5 1785.7340
p6 1803.6540
p7 1868.6140
p8 1902.0240
p9 1805.6940
p10 1833.5040
p11 1803.4240
p12 1842.1440
p13 1825.4140
p14 1826.1840
p15 1913.4340
p16 1736.0240
p17 1914.5340
p18 1908.7040
p19 1823.6040
p20 1814.0840
p21 1923.6840
p22 1825.3840
p23 1751.3140
p24 1950.4740
p25 1819.5240
p26 1767.7440
p27 1853.7940
p28 1859.1340
p29 1818.2040
p30 1804.5640
p31 1866.6040
p32 1809.0740
p33 1842.7240
p34 1791.2040
p35 1834.9040
p36 1957.2740
p37 1761.9240
p38 1754.9140
p39 1802.8840
c40 1551.6340
c41 1555.1240
c42 1565.6640
c43 1557.2840
c44 1508.8040
c45 1542.7540
c46 1537.0140
c47 1587.6840
c48 1584.8240
c49 1592.0140
c50 1597.0740
c51 1529.8840
c52 1529.7440
c53 1508.7440
c54 1583.5740
c55 1470.5640
c56 1659.3340
c57 1560.3540
c58 1562.7640
c59 1608.3040
c60 1497.1240
c61 1610.1240
c62 1589.9240
c63 1641.0140
c64 1594.7440
c65 1486.6840
c66 1477.3140
c67 1503.0140
c68 1542.3340
c69 1601.4640
c70 1577.9640
c71 1534.3040
c72 1467.2240
c73 1642.9640
c74 1509.5540
c75 1499.3440
c76 1543.5340
c77 1549.0440
c78 1602.2140
c79 1599.9940
w80 1795.5540
w81 1783.1940
w82 1904.4840
w83 1851.7040
w84 1854.0340
w85 1774.9040
w86 1841.0440
w87 1823.7340
w88 1854.3640
w89 1866.1540
w90 1778.2340
w91 1935.3040
w92 1874.0140
w93 1853.8240
w94 1839.6840
w95 1839.6240
w96 1834.8940
w97 1827.8740
w98 1818.6940
w99 1814.6540
w100 1819.5540
w101 1939.4140
w102 1795.2440
w103 1785.8940
w104 1872.7340
w105 1831.0640
w106 1874.3740
w107 1814.0740
w108 1781.1240
w109 1869.5640
w110 1885.4040
w111 1822.5340
w112 1762.1740
w113 1881.2240
w114 1879.8840
w115 1792.4640
w116 1855.7740
w117 1827.5640
w118 1864.4840
w119 1887.4340
t120 1338.8640
t121 1189.9040
t122 906.0440
t123 788.8240
t124 1108.9440
t125 1035.6040
