Message stats for scenario cdq_buff_7
sim_time: 43200.1000
created: 1463
started: 35207
relayed: 15404
aborted: 19801
dropped: 14938
removed: 0
delivered: 511
delivery_prob: 0.3493
response_prob: 0.0000
overhead_ratio: 29.1448
latency_avg: 5421.9951
latency_med: 4580.9000
hopcount_avg: 2.6556
hopcount_med: 2
buffertime_avg: 3107.4338
buffertime_med: 2363.3000
rtt_avg: NaN
rtt_med: NaN
