Message stats for scenario cdq_ttl_200
sim_time: 43200.1000
created: 1463
started: 28812
relayed: 12019
aborted: 16790
dropped: 12069
removed: 0
delivered: 464
delivery_prob: 0.3172
response_prob: 0.0000
overhead_ratio: 24.9030
latency_avg: 4390.3502
latency_med: 3734.8000
hopcount_avg: 2.5302
hopcount_med: 2
buffertime_avg: 2559.0596
buffertime_med: 1968.2000
rtt_avg: NaN
rtt_med: NaN
