[43200]
p0 1685.5040
p1 1640.9540
p2 1716.6940
p3 1452.8640
p4 1558.3240
p5 1604.7040
p6 1681.2140
p7 1710.2640
p8 1691.8740
p9 1613.4240
p10 1691.3540
p11 1668.4940
p12 1691.5640
p13 1573.6040
p14 1829.4140
p15 1709.1340
p16 1657.6140
p17 1750.4140
p18 1626.9840
p19 1630.6740
p20 1662.6140
p21 1673.3040
p22 1561.5440
p23 1615.8740
p24 1740.9340
p25 1626.7040
p26 1494.5540
p27 1604.4640
p28 1660.6340
p29 1634.6340
p30 1644.8740
p31 1543.1840
p32 1692.3540
p33 1685.8540
p34 1757.5540
p35 1558.9540
p36 1632.0940
p37 1676.3940
p38 1608.3940
p39 1751.1740
p40 1595.9940
p41 1391.1240
p42 1722.6140
p43 1529.1140
p44 1529.5340
p45 1606.5040
p46 1645.3340
p47 1672.5340
p48 1700.0140
p49 1715.6640
p50 1638.9640
p51 1472.0240
p52 1733.9040
p53 1589.0640
p54 1601.2440
p55 1535.5740
p56 1718.5440
p57 1773.2240
p58 1564.7340
p59 1608.5340
p60 1593.1440
p61 1511.8540
p62 1637.1140
p63 1448.1040
p64 1545.8840
c65 955.5440
c66 1058.2640
c67 1183.5540
c68 1148.2340
c69 1087.4840
c70 1192.6040
c71 1198.0440
c72 1196.8840
c73 1041.2840
c74 1156.0040
c75 1135.9940
c76 1215.0340
c77 1100.1240
c78 1182.5940
c79 1262.9640
c80 1067.9540
c81 1061.7740
c82 1249.7540
c83 1019.9140
c84 1159.9840
c85 1095.3340
c86 1082.1740
c87 1243.1540
c88 1152.1740
c89 1016.3940
c90 1309.1140
c91 1241.4740
c92 1107.2240
c93 1230.7740
c94 1157.3840
c95 1202.4940
c96 1180.6140
c97 1234.4840
c98 1157.7640
c99 1134.4040
c100 1116.4040
c101 1196.7040
c102 1118.3940
c103 1167.7740
c104 1041.6840
c105 1199.5840
c106 1120.5140
c107 1242.5140
c108 1141.4640
c109 1101.8840
c110 1108.3840
c111 1204.5640
c112 1121.9440
c113 1163.4140
c114 1233.8040
c115 1175.3040
c116 1136.3840
c117 1109.8340
c118 1177.5640
c119 1205.3440
c120 1255.3140
c121 1224.6540
c122 1127.4840
c123 1177.1740
c124 1281.2240
c125 1158.1340
c126 1281.3640
c127 1133.7440
c128 1198.5940
c129 1123.9540
w130 1753.0840
w131 1767.1240
w132 1574.4540
w133 1829.9840
w134 1801.9140
w135 1661.8540
w136 1614.4840
w137 1490.0140
w138 1588.6840
w139 1470.9140
w140 1824.7940
w141 1719.4640
w142 1651.9640
w143 1644.9540
w144 1621.2940
w145 1661.7540
w146 1786.0240
w147 1606.2240
w148 1633.0740
w149 1590.9340
w150 1601.7640
w151 1579.9540
w152 1572.1040
w153 1668.3640
w154 1582.9740
w155 1564.7440
w156 1549.1740
w157 1700.5740
w158 1574.6640
w159 1588.6040
w160 1619.3940
w161 1722.5740
w162 1767.2240
w163 1657.4940
w164 1750.0740
w165 1548.1040
w166 1663.2440
w167 1699.0240
w168 1505.5340
w169 1714.3340
w170 1634.5740
w171 1617.2440
w172 1655.2240
w173 1564.2740
w174 1609.5640
w175 1809.4540
w176 1727.2040
w177 1625.2640
w178 1682.2340
w179 1719.7940
w180 1533.7840
w181 1704.0940
w182 1678.2940
w183 1643.9440
w184 1653.6940
w185 1769.0940
w186 1664.7940
w187 1638.2240
w188 1584.4440
w189 1751.5540
w190 1582.7140
w191 1550.4940
w192 1643.5040
w193 1598.4840
t194 730.7340
t195 697.7040
t196 488.6140
t197 299.6640
t198 1078.0240
t199 1065.3440
