[43200]
p0 1755.2740
p1 1706.1940
p2 1834.9040
p3 1805.1140
p4 1757.2440
p5 1761.3940
p6 1859.3840
p7 1743.5840
p8 1688.0140
p9 1686.4140
p10 1853.3040
p11 1700.9240
p12 1609.4240
p13 1754.0040
p14 1793.9340
p15 1742.1140
p16 1840.0840
p17 1740.2640
p18 1793.3840
p19 1693.5840
p20 1801.0340
p21 1809.9440
p22 1788.8140
p23 1700.8140
p24 1767.7340
p25 1693.7040
p26 1810.0840
p27 1670.4940
p28 1736.4340
p29 1832.5940
p30 1742.3540
p31 1818.9740
p32 1693.1540
p33 1686.1240
p34 1799.0240
p35 1766.0640
p36 1801.9240
p37 1708.8540
p38 1735.1840
p39 1766.6740
p40 1873.1540
p41 1770.6540
p42 1744.8740
p43 1743.8340
p44 1824.5840
p45 1815.8340
p46 1647.9440
p47 1827.2340
c48 1453.9040
c49 1435.2240
c50 1383.3640
c51 1400.2140
c52 1390.4040
c53 1353.0240
c54 1433.4640
c55 1417.5340
c56 1429.4440
c57 1538.3840
c58 1439.3340
c59 1441.8740
c60 1332.7040
c61 1408.8040
c62 1374.2340
c63 1413.4540
c64 1358.9840
c65 1355.2240
c66 1445.7940
c67 1409.3740
c68 1425.0440
c69 1464.0440
c70 1317.8940
c71 1308.0840
c72 1423.1440
c73 1470.4940
c74 1495.7440
c75 1483.2240
c76 1310.2540
c77 1473.1740
c78 1344.2340
c79 1338.9940
c80 1424.0240
c81 1353.4540
c82 1382.4140
c83 1448.5440
c84 1509.0940
c85 1461.4540
c86 1399.8740
c87 1324.2040
c88 1405.2640
c89 1365.9440
c90 1404.0840
c91 1399.8340
c92 1400.4540
c93 1320.1840
c94 1345.5040
c95 1376.7540
w96 1764.0440
w97 1626.9340
w98 1783.2240
w99 1821.3640
w100 1769.1240
w101 1785.4040
w102 1708.4240
w103 1769.8840
w104 1739.1340
w105 1791.2440
w106 1762.3440
w107 1852.8640
w108 1741.5440
w109 1811.6340
w110 1592.1140
w111 1782.0640
w112 1668.5940
w113 1573.9540
w114 1729.9840
w115 1600.4240
w116 1779.3340
w117 1808.2840
w118 1711.4340
w119 1706.8440
w120 1692.3840
w121 1820.0140
w122 1726.7340
w123 1767.5140
w124 1721.6440
w125 1751.9440
w126 1728.2340
w127 1831.8640
w128 1757.2040
w129 1611.2840
w130 1786.2540
w131 1807.6940
w132 1851.1140
w133 1851.8540
w134 1917.4940
w135 1702.7440
w136 1806.8540
w137 1808.3740
w138 1744.1040
w139 1878.6840
w140 1818.8240
w141 1860.9640
w142 1847.5340
w143 1737.1440
t144 940.8140
t145 1021.2740
t146 737.0540
t147 566.2040
t148 1097.8640
t149 1059.6840
