[43200]
p0 1656.2840
p1 1695.0040
p2 1748.3540
p3 1648.0840
p4 1710.4640
p5 1647.5540
p6 1835.4540
p7 1745.3840
p8 1668.1240
p9 1744.4740
p10 1864.0240
p11 1725.3940
p12 1711.7740
p13 1758.5840
p14 1738.6340
p15 1780.6640
p16 1744.4040
p17 1687.2540
p18 1833.0140
p19 1784.3140
p20 1765.4040
p21 1696.4640
p22 1709.8740
p23 1750.7440
p24 1684.9040
p25 1789.3140
p26 1804.4740
p27 1721.9340
p28 1737.6940
p29 1706.7440
p30 1634.2040
p31 1744.9940
p32 1789.7640
p33 1718.1840
p34 1703.6240
p35 1600.6140
p36 1711.1340
p37 1830.8240
p38 1681.4040
p39 1751.4440
p40 1723.3140
p41 1769.9840
p42 1878.4140
p43 1728.6940
p44 1733.9640
p45 1704.8840
p46 1792.6540
p47 1691.5240
p48 1766.9240
p49 1751.6740
p50 1683.1240
p51 1674.7940
p52 1700.6240
p53 1796.1640
p54 1681.3440
p55 1600.0240
c56 1412.7940
c57 1418.9140
c58 1401.0140
c59 1286.8340
c60 1268.2640
c61 1381.4140
c62 1435.6340
c63 1276.6740
c64 1288.1340
c65 1444.0240
c66 1376.1440
c67 1394.8340
c68 1367.4240
c69 1373.9240
c70 1338.0340
c71 1455.7640
c72 1297.6040
c73 1372.6640
c74 1245.4340
c75 1332.9040
c76 1403.4140
c77 1476.0140
c78 1288.2940
c79 1392.6140
c80 1278.6140
c81 1311.3040
c82 1326.1340
c83 1338.4840
c84 1328.0240
c85 1304.6740
c86 1332.9740
c87 1384.1140
c88 1277.2540
c89 1366.7440
c90 1330.9040
c91 1264.5940
c92 1311.4140
c93 1304.0940
c94 1294.4740
c95 1400.2040
c96 1438.1340
c97 1293.3540
c98 1263.4040
c99 1365.4040
c100 1350.2540
c101 1334.5040
c102 1284.1540
c103 1350.0740
c104 1302.5440
c105 1380.4940
c106 1286.5440
c107 1327.1540
c108 1383.9140
c109 1448.7640
c110 1348.8140
c111 1433.8440
w112 1659.2440
w113 1793.3340
w114 1753.7440
w115 1743.9540
w116 1743.9840
w117 1784.7040
w118 1746.0840
w119 1748.1640
w120 1676.0440
w121 1763.4640
w122 1736.4840
w123 1613.6140
w124 1693.7040
w125 1741.8240
w126 1783.8740
w127 1717.1340
w128 1784.2940
w129 1771.6940
w130 1752.5340
w131 1744.0840
w132 1724.8240
w133 1744.4240
w134 1724.8440
w135 1689.5640
w136 1806.5040
w137 1562.1640
w138 1718.0040
w139 1785.7940
w140 1672.1840
w141 1728.9140
w142 1781.3840
w143 1689.1940
w144 1789.3840
w145 1725.4640
w146 1860.2640
w147 1793.9140
w148 1874.0840
w149 1822.4140
w150 1840.1540
w151 1838.3640
w152 1803.2240
w153 1741.2940
w154 1625.3240
w155 1848.2640
w156 1813.0640
w157 1829.4440
w158 1652.7140
w159 1738.9740
w160 1775.7840
w161 1714.8840
w162 1689.0140
w163 1783.9540
w164 1856.1140
w165 1708.9140
w166 1830.2440
w167 1724.8240
w168 1726.1140
t169 983.5840
t170 970.9340
t171 678.3540
t172 826.0540
t173 1178.3440
t174 1232.8440
