[43200]
p0 1772.3740
p1 1751.6440
p2 1809.3040
p3 1797.9140
p4 1779.9440
p5 1819.4940
p6 1860.8840
p7 1750.4840
p8 1738.4140
p9 1690.8140
p10 1855.0040
p11 1726.6240
p12 1656.9740
p13 1779.7540
p14 1811.5340
p15 1754.9640
p16 1817.9840
p17 1792.2640
p18 1811.9840
p19 1731.4840
p20 1830.1340
p21 1821.3940
p22 1798.1140
p23 1760.7140
p24 1764.8840
p25 1709.7540
p26 1837.9340
p27 1720.1940
p28 1766.1840
p29 1841.8940
p30 1796.4540
p31 1843.8240
p32 1675.6040
p33 1691.5240
p34 1826.2740
p35 1793.2140
p36 1847.1240
p37 1737.0040
p38 1736.7840
p39 1769.0240
p40 1892.0540
p41 1790.3540
p42 1730.9240
p43 1786.0340
p44 1840.1340
p45 1836.9840
p46 1653.0440
p47 1846.4340
c48 1502.4540
c49 1496.7740
c50 1458.2640
c51 1419.4140
c52 1405.3040
c53 1392.4740
c54 1482.2640
c55 1442.1340
c56 1467.2940
c57 1531.5840
c58 1438.0340
c59 1470.5240
c60 1384.6540
c61 1478.5540
c62 1427.3840
c63 1483.5540
c64 1397.4840
c65 1389.5240
c66 1485.0940
c67 1452.6240
c68 1453.6940
c69 1469.3440
c70 1384.8940
c71 1366.0840
c72 1478.6440
c73 1528.5940
c74 1502.7940
c75 1511.3740
c76 1349.1040
c77 1516.4740
c78 1386.5840
c79 1372.1440
c80 1451.7740
c81 1392.5540
c82 1441.1640
c83 1475.4940
c84 1509.7440
c85 1519.6540
c86 1448.0240
c87 1343.8540
c88 1408.0140
c89 1377.8440
c90 1440.1340
c91 1447.1340
c92 1452.7540
c93 1374.0340
c94 1380.9040
c95 1374.7540
w96 1802.5440
w97 1692.4340
w98 1784.4740
w99 1837.1140
w100 1809.7240
w101 1849.8540
w102 1718.3740
w103 1817.4840
w104 1751.1340
w105 1793.9940
w106 1781.6940
w107 1877.5140
w108 1765.6440
w109 1818.8840
w110 1676.3140
w111 1769.5640
w112 1697.9440
w113 1611.6040
w114 1760.0840
w115 1654.4740
w116 1821.0340
w117 1782.2340
w118 1729.9340
w119 1791.2440
w120 1747.2340
w121 1873.7640
w122 1739.6340
w123 1811.7140
w124 1764.6940
w125 1797.0940
w126 1740.8340
w127 1857.2640
w128 1803.6040
w129 1641.8340
w130 1805.4540
w131 1819.4940
w132 1893.1140
w133 1873.8540
w134 1914.5440
w135 1753.8440
w136 1823.1540
w137 1848.6240
w138 1772.0540
w139 1868.8340
w140 1840.6740
w141 1905.1640
w142 1906.2340
w143 1765.8940
t144 1029.2140
t145 1091.8740
t146 842.6540
t147 724.9040
t148 1250.7140
t149 1325.0840
