Message stats for scenario cq_ttl_200
sim_time: 43200.1000
created: 1463
started: 26739
relayed: 11066
aborted: 15671
dropped: 11140
removed: 0
delivered: 453
delivery_prob: 0.3096
response_prob: 0.0000
overhead_ratio: 23.4283
latency_avg: 4493.4119
latency_med: 3753.5000
hopcount_avg: 2.5563
hopcount_med: 2
buffertime_avg: 2678.0166
buffertime_med: 2100.6000
rtt_avg: NaN
rtt_med: NaN
