Message stats for scenario base_cdq_ttl_400
sim_time: 43200.1000
created: 1463
started: 47280
relayed: 24434
aborted: 22844
dropped: 24575
removed: 0
delivered: 279
delivery_prob: 0.1907
response_prob: 0.0000
overhead_ratio: 86.5771
latency_avg: 4829.8935
latency_med: 3149.2000
hopcount_avg: 3.5484
hopcount_med: 3
buffertime_avg: 1679.3489
buffertime_med: 1110.8000
rtt_avg: NaN
rtt_med: NaN
