Message stats for scenario base_cdq_buff_15
sim_time: 43200.1000
created: 1463
started: 53693
relayed: 27699
aborted: 25992
dropped: 26365
removed: 0
delivered: 509
delivery_prob: 0.3479
response_prob: 0.0000
overhead_ratio: 53.4185
latency_avg: 4927.1026
latency_med: 3990.1000
hopcount_avg: 2.6267
hopcount_med: 2
buffertime_avg: 3645.5964
buffertime_med: 3214.4000
rtt_avg: NaN
rtt_med: NaN
