Message stats for scenario base_pq_nodes_126
sim_time: 43200.1000
created: 1463
started: 51162
relayed: 26380
aborted: 24780
dropped: 26649
removed: 0
delivered: 271
delivery_prob: 0.1852
response_prob: 0.0000
overhead_ratio: 96.3432
latency_avg: 4167.6317
latency_med: 3093.0000
hopcount_avg: 3.5092
hopcount_med: 3
buffertime_avg: 1535.9499
buffertime_med: 1034.3000
rtt_avg: NaN
rtt_med: NaN
