[43200]
p0 1603.9640
p1 1547.3740
p2 1680.1240
p3 1516.8740
p4 1736.9540
p5 1504.9840
p6 1548.2040
p7 1692.4140
p8 1711.7740
p9 1581.8940
p10 1604.1540
p11 1573.1240
p12 1556.5440
p13 1465.7640
p14 1596.0340
p15 1705.5840
p16 1390.4740
p17 1709.0340
p18 1688.7040
p19 1602.6540
p20 1575.6840
p21 1729.7340
p22 1605.9340
p23 1477.0640
p24 1740.0240
p25 1501.0240
p26 1443.3940
p27 1635.4940
p28 1637.1840
p29 1524.3540
p30 1594.6140
p31 1647.9040
p32 1583.0240
p33 1656.8740
p34 1550.0040
p35 1673.5040
p36 1772.4240
p37 1422.9240
p38 1491.0640
p39 1571.8840
c40 1336.0340
c41 1364.4240
c42 1379.4640
c43 1383.8340
c44 1305.4040
c45 1360.4040
c46 1368.5140
c47 1410.7840
c48 1340.3740
c49 1407.7140
c50 1418.2240
c51 1410.8840
c52 1330.5440
c53 1307.0440
c54 1405.8240
c55 1287.2640
c56 1526.6340
c57 1369.0040
c58 1410.6640
c59 1395.1040
c60 1286.3240
c61 1418.4740
c62 1383.2740
c63 1472.0140
c64 1409.6440
c65 1333.1840
c66 1327.5640
c67 1285.7140
c68 1376.2340
c69 1388.9140
c70 1345.9140
c71 1281.8540
c72 1264.5740
c73 1460.7640
c74 1318.2540
c75 1293.7940
c76 1320.9340
c77 1392.8440
c78 1435.8140
c79 1414.9940
w80 1564.0540
w81 1488.9440
w82 1696.5340
w83 1609.3540
w84 1621.8840
w85 1530.3040
w86 1542.0940
w87 1594.2340
w88 1642.8140
w89 1623.4040
w90 1545.8340
w91 1687.3040
w92 1618.6640
w93 1598.9240
w94 1584.8840
w95 1601.2740
w96 1628.5940
w97 1648.0740
w98 1642.8940
w99 1590.8040
w100 1583.1040
w101 1719.8140
w102 1555.7940
w103 1507.2940
w104 1659.5840
w105 1658.1640
w106 1664.1740
w107 1602.2240
w108 1506.0740
w109 1598.3140
w110 1678.6540
w111 1514.8340
w112 1481.8740
w113 1658.1740
w114 1694.2840
w115 1491.5640
w116 1642.4240
w117 1606.9640
w118 1592.1340
w119 1687.5340
t120 1227.3140
t121 1139.2540
t122 876.4940
t123 773.4740
t124 1025.4940
t125 980.2040
