[43200]
p0 1846.7640
p1 1819.0740
p2 1894.9240
p3 1795.5240
p4 1901.3040
p5 1726.4340
p6 1818.5040
p7 1914.3140
p8 1911.7240
p9 1815.6440
p10 1836.6040
p11 1803.1740
p12 1841.2940
p13 1795.4640
p14 1830.4840
p15 1900.7840
p16 1748.9240
p17 1908.2840
p18 1926.6040
p19 1846.2540
p20 1807.6840
p21 1917.3340
p22 1830.4340
p23 1765.9140
p24 1937.0240
p25 1807.0740
p26 1752.3940
p27 1863.8440
p28 1852.0340
p29 1818.6040
p30 1807.5140
p31 1879.3540
p32 1847.3740
p33 1823.3740
p34 1811.4540
p35 1872.7540
p36 1951.9740
p37 1768.4240
p38 1841.5640
p39 1849.0340
c40 1539.5840
c41 1521.4740
c42 1588.4140
c43 1556.5840
c44 1522.8540
c45 1545.4040
c46 1549.3140
c47 1577.5840
c48 1534.9240
c49 1603.6140
c50 1652.0240
c51 1551.6840
c52 1594.5940
c53 1512.6940
c54 1583.3240
c55 1477.4140
c56 1653.1840
c57 1535.3040
c58 1562.3140
c59 1604.7040
c60 1511.5240
c61 1580.2740
c62 1567.5240
c63 1641.3140
c64 1614.5440
c65 1471.6840
c66 1507.3640
c67 1531.7640
c68 1500.1840
c69 1584.4640
c70 1544.7640
c71 1493.6040
c72 1483.5740
c73 1633.6140
c74 1495.7040
c75 1474.5440
c76 1537.2340
c77 1567.2440
c78 1594.3140
c79 1601.8440
w80 1825.2040
w81 1777.2440
w82 1894.7840
w83 1843.4040
w84 1870.6840
w85 1776.9540
w86 1805.8440
w87 1819.2340
w88 1834.1140
w89 1883.3040
w90 1808.1840
w91 1919.3040
w92 1846.3140
w93 1839.4740
w94 1812.7340
w95 1842.5240
w96 1844.9440
w97 1853.4740
w98 1836.9940
w99 1813.2540
w100 1830.5540
w101 1896.9140
w102 1802.5440
w103 1801.3440
w104 1848.9340
w105 1846.8640
w106 1870.5740
w107 1808.1240
w108 1802.3740
w109 1844.7140
w110 1891.3540
w111 1765.1340
w112 1785.6240
w113 1867.2240
w114 1909.3840
w115 1800.0640
w116 1870.9740
w117 1853.0140
w118 1844.3340
w119 1866.2340
t120 1324.7640
t121 1230.9540
t122 978.9940
t123 933.6740
t124 1316.5940
t125 1282.0540
